{
    "KPlugin": {
        "Authors": [
            {
                "Name": "Carlos Nihelton",
                "Name[ca@valencia]": "Carlos Nihelton",
                "Name[ca]": "Carlos Nihelton",
                "Name[cs]": "Carlos Nihelton",
                "Name[de]": "Carlos Nihelton",
                "Name[en_GB]": "Carlos Nihelton",
                "Name[es]": "Carlos Nihelton",
                "Name[fr]": "Carlos Nihelton",
                "Name[gl]": "Carlos Nihelton",
                "Name[it]": "Carlos Nihelton",
                "Name[nl]": "Carlos Nihelton",
                "Name[pl]": "Carlos Nihelton",
                "Name[pt]": "Carlos Nihelton",
                "Name[pt_BR]": "Carlos Nihelton",
                "Name[ru]": "Carlos Nihelton",
                "Name[sv]": "Carlos Nihelton",
                "Name[uk]": "Carlos Nihelton",
                "Name[x-test]": "xxCarlos Niheltonxx",
                "Name[zh_CN]": "Carlos Nihelton"
            },
            {
                "Name": "Friedrich W. H. Kossebau",
                "Name[ca@valencia]": "Friedrich W. H. Kossebau",
                "Name[ca]": "Friedrich W. H. Kossebau",
                "Name[cs]": "Friedrich W. H. Kossebau",
                "Name[de]": "Friedrich W. H. Kossebau",
                "Name[en_GB]": "Friedrich W. H. Kossebau",
                "Name[es]": "Friedrich W. H. Kossebau",
                "Name[fi]": "Friedrich W. H. Kossebau",
                "Name[fr]": "Friedrich W. H. Kossebau",
                "Name[gl]": "Friedrich W. H. Kossebau",
                "Name[it]": "Friedrich W. H. Kossebau",
                "Name[nl]": "Friedrich W. H. Kossebau",
                "Name[nn]": "Friedrich W.H. Kossebau",
                "Name[pl]": "Friedrich W. H. Kossebau",
                "Name[pt]": "Friedrich W. H. Kossebau",
                "Name[pt_BR]": "Friedrich W. H. Kossebau",
                "Name[ru]": "Friedrich W. H. Kossebau",
                "Name[sk]": "Friedrich W. H. Kossebau",
                "Name[sl]": "Friedrich W. H. Kossebau",
                "Name[sv]": "Friedrich W. H. Kossebau",
                "Name[tr]": "Friedrich W. H. Kossebau",
                "Name[uk]": "Friedrich W. H. Kossebau",
                "Name[x-test]": "xxFriedrich W. H. Kossebauxx",
                "Name[zh_CN]": "Friedrich W. H. Kossebau"
            }
        ],
        "Category": "Analyzers",
        "Description": "clang-tidy provides an extensible framework for diagnosing and fixing typical programming errors, like style violations, interface misuse, or bugs that can be deduced via static analysis. https://clang.llvm.org/extra/clang-tidy/",
        "Description[ca@valencia]": "El clang-tidy proporciona un marc de treball extensible per al diagnòstic i esmena d'errors de programació típics, com ara infraccions de l'estil, mal ús de la interfície o errors que es poden deduir mitjançant anàlisi estàtica. https://clang.llvm.org/extra/clang-tidy/",
        "Description[ca]": "El clang-tidy proporciona un marc de treball extensible per al diagnòstic i esmena d'errors de programació típics, com ara infraccions de l'estil, mal ús de la interfície o errors que es poden deduir mitjançant anàlisi estàtica. https://clang.llvm.org/extra/clang-tidy/",
        "Description[es]": "Clang-Tidy proporciona una infraestructura extensible para diagnosticar y corregir errores típicos de programación, como violaciones de estilo, mal uso de la interfaz o fallos que se pueden deducir mediante análisis estáticos. https://clang.llvm.org/extra/clang-tidy/",
        "Description[gl]": "clang-tidy fornece unha infraestrutura extensíbel para diagnosticar e solucionar erros de programación típicos, como violacións das regras de estilo, ou fallos que poden deducirse mediante a análise sintáctica. https://clang.llvm.org/extra/clang-tidy/",
        "Description[it]": "clang-tidy fornisce un'infrastruttura estensibile per diagnosticare e correggere dei classici errori di programmazione, che includono violazioni di stile, uso incorretto delle interfacce o errori che possono essere dedotti tramite analisi statica. https://clang.llvm.org/extra/clang-tidy/",
        "Description[nl]": "clang-tidy biedt een uitbreidbaar framework voor diagnose en repareren van typische programmeringsfouten, zoals ingaan tegen de stijl, misbruik van interface of bugs die afgeleid worden via statische analyse. https://clang.llvm.org/extra/clang-tidy/",
        "Description[pl]": "clang-tidy dostarcza szkielet do diagnostyki i naprawiania powszechnych błędów programistycznych, takich jak łamanie zasad, nadużycia w interfejsie, lub błędy, które można wykryć poprzez analizę statyczną. https://clang.llvm.org/extra/clang-tidy/",
        "Description[pt]": "O 'clang-tidy' oferece uma plataforma extensível para diagnosticar e corrigir erros de programação típicos, como as violações do estilo, mau uso das interfaces ou erros que possam ser deduzidos por análise estática. https://clang.llvm.org/extra/clang-tidy/",
        "Description[pt_BR]": "O 'clang-tidy' oferece uma plataforma extensível para diagnosticar e corrigir erros de programação típicos, como as violações do estilo, mau uso das interfaces ou erros que possam ser deduzidos por análise estática. https://clang.llvm.org/extra/clang-tidy/",
        "Description[sv]": "Clang-Tidy tillhandahåller ett utvidgningsbart ramverk för att diagnosticera och rätta typiska programmeringsfel, som stilöverträdelser, gränssnittsmissbruk eller fel som kan härledas via statisk analys. https://clang.llvm.org/extra/clang-tidy/",
        "Description[uk]": "clang-tidy — розширена оболонка діагностування та виправлення типових помилок у програмах, зокрема порушень стилю, помилкового використання інтерфейсу та вад, які можна виявити за допомогою статичного аналізу. https://clang.llvm.org/extra/clang-tidy/",
        "Description[x-test]": "xxclang-tidy provides an extensible framework for diagnosing and fixing typical programming errors, like style violations, interface misuse, or bugs that can be deduced via static analysis. https://clang.llvm.org/extra/clang-tidy/xx",
        "Icon": "dialog-ok",
        "Id": "kdevclangtidy",
        "License": "GPL",
        "Name": "Clang-Tidy Support",
        "Name[ca@valencia]": "Implementació del Clang-Tidy",
        "Name[ca]": "Implementació del Clang-Tidy",
        "Name[cs]": "Podpora Clang-Tidy",
        "Name[de]": "Unterstützung für Clang-Tidy",
        "Name[en_GB]": "Clang-Tidy Support",
        "Name[es]": "Implementación de Clang-Tidy",
        "Name[fr]": "Prise en charge de Clang-Tidy",
        "Name[gl]": "Compatibilidade con Clang-Tidy",
        "Name[it]": "Supporto per Clang-Tidy",
        "Name[nl]": "Ondersteuning van Clang-Tidy",
        "Name[pl]": "Obsługa Clang-Tidy",
        "Name[pt]": "Suporte para o Clang-Tidy",
        "Name[pt_BR]": "Suporte à Clang-Tidy",
        "Name[sv]": "Clang-Tidy-stöd",
        "Name[uk]": "Підтримка Clang-Tidy",
        "Name[x-test]": "xxClang-Tidy Supportxx",
        "Name[zh_CN]": "Clang-Tidy 支持",
        "ServiceTypes": [
            "KDevelop/Plugin"
        ],
        "Version": "0.3.3"
    },
    "X-KDevelop-Category": "Global",
    "X-KDevelop-IRequired": [
        "org.kdevelop.IBuildSystemManager"
    ],
    "X-KDevelop-Mode": "GUI"
}
